%YAML 1.1
%TAG !u! tag:unity3d.com,2011:
--- !u!114 &11400000
MonoBehaviour:
  m_ObjectHideFlags: 0
  m_CorrespondingSourceObject: {fileID: 0}
  m_PrefabInstance: {fileID: 0}
  m_PrefabAsset: {fileID: 0}
  m_GameObject: {fileID: 0}
  m_Enabled: 1
  m_EditorHideFlags: 0
  m_Script: {fileID: 11500000, guid: 7afdf47c9fdf40d98ceb9ee930831e0c, type: 3}
  m_Name: AttackTypesParameters
  m_EditorClassIdentifier: 
  _array:
  - Id: 1
    Name: ConeAttack
