%YAML 1.1
%TAG !u! tag:unity3d.com,2011:
--- !u!114 &11400000
MonoBehaviour:
  m_ObjectHideFlags: 0
  m_CorrespondingSourceObject: {fileID: 0}
  m_PrefabInstance: {fileID: 0}
  m_PrefabAsset: {fileID: 0}
  m_GameObject: {fileID: 0}
  m_Enabled: 1
  m_EditorHideFlags: 0
  m_Script: {fileID: 11500000, guid: a95241dbfe4c4072906e6b1756be134d, type: 3}
  m_Name: BuildingParameters
  m_EditorClassIdentifier: 
  _array:
  - Id: 1
    InteractRadius: 4
    Position: {x: 0, y: 0, z: 23.86}
    Size: {x: 8.5, y: 3, z: 3}
    BuildingType: 0
    PossibleBuildingIds: 01000000
  - Id: 2
    InteractRadius: 4
    Position: {x: -14, y: 0, z: 23.86}
    Size: {x: 3, y: 3, z: 3}
    BuildingType: 1
    PossibleBuildingIds: 02000000
  - Id: 4
    InteractRadius: 4
    Position: {x: 14, y: 0, z: 23.86}
    Size: {x: 3, y: 3, z: 3}
    BuildingType: 2
    PossibleBuildingIds: 02000000
