%YAML 1.1
%TAG !u! tag:unity3d.com,2011:
--- !u!114 &11400000
MonoBehaviour:
  m_ObjectHideFlags: 0
  m_CorrespondingSourceObject: {fileID: 0}
  m_PrefabInstance: {fileID: 0}
  m_PrefabAsset: {fileID: 0}
  m_GameObject: {fileID: 0}
  m_Enabled: 1
  m_EditorHideFlags: 0
  m_Script: {fileID: 11500000, guid: 134896479b2f47898ccdee9cb80a15ea, type: 3}
  m_Name: BuildingViewParameters
  m_EditorClassIdentifier: 
  _array:
  - Id: 1
    Prefab: {fileID: 3117088448006294505, guid: 74a9bc09b4e03e443accd2bd70615558, type: 3}
    Size: {x: 8.5, y: 3, z: 3}
  - Id: 2
    Prefab: {fileID: 6511755706192679912, guid: 15768908e579f4c4382e28fc5a9971c6, type: 3}
    Size: {x: 3, y: 3, z: 3}
  - Id: 4
    Prefab: {fileID: 3624281918175971911, guid: fb0e35f29a4caa24aaa5401bdf26102b, type: 3}
    Size: {x: 3, y: 3, z: 3}
